0
0.627450980392157
1.25490196078431
1.25490196078431
1.25490196078431
1.25490196078431
1.25490196078431
1.25490196078431
1.25490196078431
1.25490196078431
1.25490196078431
1.25490196078431
1.25490196078431
1.25490196078431
1.25490196078431
1.25490196078431
1.25490196078431
1.25490196078431
1.25490196078431
1.25490196078431
1.25490196078431
1.25490196078431
1.25490196078431
1.12941176470588
1.00392156862745
0.87843137254902
0.752941176470588
0.627450980392157
0.501960784313726
0.376470588235294
0.250980392156863
0.125490196078431
0
0.125490196078431
0.250980392156863
0.376470588235294
0.501960784313726
0.627450980392157
0.752941176470588
0.87843137254902
1.00392156862745
1.12941176470588
1.25490196078431
1.25490196078431
1.25490196078431
1.25490196078431
1.25490196078431
1.25490196078431
1.25490196078431
1.25490196078431
1.25490196078431
1.25490196078431
1.25490196078431
1.25490196078431
1.25490196078431
1.25490196078431
1.25490196078431
1.25490196078431
1.25490196078431
1.25490196078431
1.25490196078431
1.25490196078431
0.627450980392157
0



